8 Nettoyage de données et fonctions essentielles | The Epidemiologist R Handbook
…
8.12 Calculs par rangée

Si vous voulez effectuer un calcul dans une ligne, vous pouvez utiliser rowwise() de dplyr. Voir cette vignette en ligne sur calculs par ligne.

Par exemple, ce code applique rowwise() et crée une nouvelle colonne qui additionne le nombre de colonnes de symptômes spécifiées qui ont la valeur “yes”, pour chaque ligne de la linelist. Les colonnes sont spécifiées dans sum() par leur nom dans un vecteur c(). rowwise() est essentiellement un type spécial de group_by(), il est donc préférable d’utiliser ungroup() lorsque vous avez terminé (page sur Travailler sur des données groupées).

linelist %>%
  rowwise() %>%
  mutate(num_symptoms = sum(c(fever, chills, cough, aches, vomit) == "yes")) %>% 
  ungroup() %>% 
  select(fever, chills, cough, aches, vomit, num_symptoms) # pour affichage

## # A tibble: 5,888 × 6
##    fever chills cough aches vomit num_symptoms
##    <chr> <chr>  <chr> <chr> <chr>        <int>
##  1 no    no     yes   no    yes              2
##  2 <NA>  <NA>   <NA>  <NA>  <NA>            NA
##  3 <NA>  <NA>   <NA>  <NA>  <NA>            NA
##  4 no    no     no    no    no               0
##  5 no    no     yes   no    yes              2
##  6 no    no     yes   no    yes              2
##  7 <NA>  <NA>   <NA>  <NA>  <NA>            NA
##  8 no    no     yes   no    yes              2
##  9 no    no     yes   no    yes              2
## 10 no    no     yes   no    no               1
## # ℹ 5,878 more rows
…
Placez les critères de spécification des colonnes dans la fonction dplyr c_across(). Ceci marche parce que c_across ( documentation) est conçue pour fonctionner avec rowwise() spécifiquement. Par exemple, le code suivant :

Applique rowwise() pour que l’opération suivante (sum()) soit appliquée à chaque ligne (sans additionner des colonnes entières)

Crée la nouvelle colonne num_NA_dates, définie pour chaque ligne comme le nombre de colonnes (dont le nom contient “date”) pour lesquelles is.na() a donné la valeur TRUE (ce sont des données manquantes).

ungroup() pour supprimer les effets de rowwise() pour les étapes suivantes.

linelist %>%
  rowwise() %>%
  mutate(num_NA_dates = sum(is.na(c_across(contains("date"))))) %>% 
  ungroup() %>% 
  select(num_NA_dates, contains("date")) # pour affichage

## # A tibble: 5,888 × 5
##    num_NA_dates date_infection date_onset date_hospitalisation date_outcome
##           <int> <date>         <date>     <date>               <date>      
##  1            1 2014-05-08     2014-05-13 2014-05-15           NA          
##  2            1 NA             2014-05-13 2014-05-14           2014-05-18  
##  3            1 NA             2014-05-16 2014-05-18           2014-05-30  
##  4            1 2014-05-04     2014-05-18 2014-05-20           NA          
##  5            0 2014-05-18     2014-05-21 2014-05-22           2014-05-29  
##  6            0 2014-05-03     2014-05-22 2014-05-23           2014-05-24  
##  7            0 2014-05-22     2014-05-27 2014-05-29           2014-06-01  
##  8            0 2014-05-28     2014-06-02 2014-06-03           2014-06-07  
##  9            1 NA             2014-06-05 2014-06-06           2014-06-18  
## 10            1 NA             2014-06-05 2014-06-07           2014-06-09  
## # ℹ 5,878 more rows

Vous pouvez également fournir d’autres fonctions, telles que max() pour obtenir la dernière ou la plus récente date pour chaque ligne :

linelist %>%
  rowwise() %>%
  mutate(latest_date = max(c_across(contains("date")), na.rm=T)) %>% 
  ungroup() %>% 
  select(latest_date, contains("date"))  # pour affichage 

## # A tibble: 5,888 × 5
##    latest_date date_infection date_onset date_hospitalisation date_outcome
##    <date>      <date>         <date>     <date>               <date>      
##  1 2014-05-15  2014-05-08     2014-05-13 2014-05-15           NA          
##  2 2014-05-18  NA             2014-05-13 2014-05-14           2014-05-18  
##  3 2014-05-30  NA             2014-05-16 2014-05-18           2014-05-30  
##  4 2014-05-20  2014-05-04     2014-05-18 2014-05-20           NA          
##  5 2014-05-29  2014-05-18     2014-05-21 2014-05-22           2014-05-29  
##  6 2014-05-24  2014-05-03     2014-05-22 2014-05-23           2014-05-24  
##  7 2014-06-01  2014-05-22     2014-05-27 2014-05-29           2014-06-01  
##  8 2014-06-07  2014-05-28     2014-06-02 2014-06-03           2014-06-07  
##  9 2014-06-18  NA             2014-06-05 2014-06-06           2014-06-18  
## 10 2014-06-09  NA             2014-06-05 2014-06-07           2014-06-09  
## # ℹ 5,878 more rows
…
