25 Suivi des contacts | Le Epi R Handbook
…
Avec la structure de données Go.Data, le jeu de données relations contient les âges des cas et des contacts, vous pourriez donc utiliser ce jeu de données et créer une pyramide des âges montrant les différences entre ces deux groupes de personnes. Le tableau de données relations sera modifié pour transformer les colonnes d’âge numériques en catégories (voir la page Nettoyage des données et fonctions de base). Nous faisons également pivoter le tableau de données pour faciliter le traçage avec ggplot2 (voir Pivoter les données).

relation_age <- relationships %>% 
  select(source_age, target_age) %>% 
  transmute(        # transmute est comme mutate() mais supprime toutes les autres colonnes non mentionnées
    source_age_class = epikit::age_categories(source_age, breakers = seq(0, 80, 5)),
    target_age_class = epikit::age_categories(target_age, breakers = seq(0, 80, 5)),
    ) %>% 
  pivot_longer(cols = contains("class"), names_to = "category", values_to = "age_class")  # pivotement plus long

relation_age

## # A tibble: 200 × 2
##    category         age_class
##    <chr>            <fct>    
##  1 source_age_class 80+      
##  2 target_age_class 15-19    
##  3 source_age_class <NA>     
##  4 target_age_class 50-54    
##  5 source_age_class <NA>     
##  6 target_age_class 20-24    
##  7 source_age_class 30-34    
##  8 target_age_class 45-49    
##  9 source_age_class 40-44    
## 10 target_age_class 30-34    
## # ℹ 190 more rows
…
Le nombre de contacts par cas peut être une unité de mesure importante pour évaluer la qualité du dénombrement des contacts et la conformité de la population à la réponse de santé publique.

En fonction de votre structure de données, cela peut être évalué avec un ensemble de données qui contient tous les cas et les contacts. Dans les ensembles de données de Go.Data, les liens entre les cas (“sources”) et les contacts (“cibles”) sont stockés dans le jeu de données relationships.

Dans cet ensemble de données, chaque ligne est un contact, et le cas source est listé dans la ligne. Aucun contact n’a de relations avec plusieurs affaires. multiples, mais si c’est le cas, vous devrez peut-être en tenir compte avant de faire le graphique (et de les explorer aussi !).

Nous commençons par compter le nombre de lignes (contacts) par cas source. Ceci est enregistré comme un tableau de données.

contacts_per_case <- relationships %>% 
  count(source_visualid)

contacts_per_case

## # A tibble: 23 × 2
##    source_visualid     n
##    <chr>           <int>
##  1 CASE-2020-0001     13
##  2 CASE-2020-0002      5
##  3 CASE-2020-0003      2
##  4 CASE-2020-0004      4
##  5 CASE-2020-0005      5
##  6 CASE-2020-0006      3
##  7 CASE-2020-0008      3
##  8 CASE-2020-0009      3
##  9 CASE-2020-0010      3
## 10 CASE-2020-0012      3
## # ℹ 13 more rows
…
