12 Travailler sur des données groupées | Le Epi R Handbook
…
La fonction group_by() de dplyr permet de définir des groupes de lignes à partir des valeurs d’une ou de plusieurs colonnes. Chaque valeur unique (ou combinaison de valeurs unique, dans le cas où plusieurs colonnes sont spécifiées) constitue un groupe. Une fois les données groupées, de nombreuses fonctions utilisées pour le nettoyage ou des analyses descriptives seront appliquées à chaque groupe.

Par exemple, le code ci-dessous groupe la linelist en fonction des valeurs uniques de la colonne outcome. La ou les colonnes selon lesquelles grouper les données sont placées entre parenthèses dans la fonction group_by(). La fonction génère un nouveau tableau de données, que nous nommons ll_by_outcome.

ll_by_outcome <- linelist %>% 
  group_by(outcome)

Notez que les données elles mêmes n’ont pas été modifiées après avoir exécuté group_by(). Le fait que le dataframe soit “groupé” se verra lorsqu’une autre fonction du paquet dplyr tel que mutate(), summarise(), ou arrange() sera appliquée sur le dataframe “groupé”.

Vous pouvez cependant savoir qu’un dataframe est groupé en l’imprimant dans la console. Vous verrez alors qu’il a été transformé en un objet de classe tibble qui, lorsqu’il est affiché, indique les groupements présents et le nombre de groupes qu’il y a juste au-dessus de la ligne d’en-tête.

# Faire afficher pour voir le schéma de groupement
ll_by_outcome

## # A tibble: 5,888 × 30
## # Groups:   outcome [3]
##    case_id generation date_infection date_onset date_hospitalisation date_outcome
##    <chr>        <dbl> <date>         <date>     <date>               <date>      
##  1 5fe599           4 2014-05-08     2014-05-13 2014-05-15           NA          
##  2 8689b7           4 NA             2014-05-13 2014-05-14           2014-05-18  
##  3 11f8ea           2 NA             2014-05-16 2014-05-18           2014-05-30  
##  4 b8812a           3 2014-05-04     2014-05-18 2014-05-20           NA          
##  5 893f25           3 2014-05-18     2014-05-21 2014-05-22           2014-05-29  
##  6 be99c8           3 2014-05-03     2014-05-22 2014-05-23           2014-05-24  
##  7 07e3e8           4 2014-05-22     2014-05-27 2014-05-29           2014-06-01  
##  8 369449           4 2014-05-28     2014-06-02 2014-06-03           2014-06-07  
##  9 f393b4           4 NA             2014-06-05 2014-06-06           2014-06-18  
## 10 1389ca           4 NA             2014-06-05 2014-06-07           2014-06-09  
## # ℹ 5,878 more rows
## # ℹ 24 more variables: outcome <chr>, gender <chr>, age <dbl>, age_unit <chr>,
## #   age_years <dbl>, age_cat <fct>, age_cat5 <fct>, hospital <chr>, lon <dbl>,
## #   lat <dbl>, infector <chr>, source <chr>, wt_kg <dbl>, ht_cm <dbl>,
## #   ct_blood <dbl>, fever <chr>, chills <chr>, cough <chr>, aches <chr>, vomit <chr>,
## #   temp <dbl>, time_admission <chr>, bmi <dbl>, days_onset_hosp <dbl>
…
Ajouter des colonnes contenant les décomptes

Construites sur des principes similaires à count() et tally(), vous pouvez utiliser les fonctions add_count() et add_tally() pour ajouter une nouvelle colonne n avec le nombre de lignes par groupe tout en conservant toutes les autres colonnes du dataframe. Cela signifie que le nombre de lignes total d’un groupe est ajouté pour chaque ligne du groupe dans une nouvelle colonne n.

Dans l’exemple suivant, nous ajoutons cette colonne et ré-arrangeons ensuite les colonnes pour une lecture plus aisée du tableau. Pour un autre exemple, voir la section plus bas sur comment filtrer sur la taille du groupe.

linelist %>% 
  as_tibble() %>%  # conversion en tibble pour un meilleur affichage
  add_count(hospital) %>%  # ajoute la colonne n avec les totaux par hôpitaux
  select(hospital, n, everything()) # trie les colonnes

## # A tibble: 5,888 × 31
##    hospital        n case_id generation date_infection date_onset date_hospitalisation
##    <chr>       <int> <chr>        <dbl> <date>         <date>     <date>              
##  1 Other         885 5fe599           4 2014-05-08     2014-05-13 2014-05-15          
##  2 Missing      1469 8689b7           4 NA             2014-05-13 2014-05-14          
##  3 St. Mark's…   422 11f8ea           2 NA             2014-05-16 2014-05-18          
##  4 Port Hospi…  1762 b8812a           3 2014-05-04     2014-05-18 2014-05-20          
##  5 Military H…   896 893f25           3 2014-05-18     2014-05-21 2014-05-22          
##  6 Port Hospi…  1762 be99c8           3 2014-05-03     2014-05-22 2014-05-23          
##  7 Missing      1469 07e3e8           4 2014-05-22     2014-05-27 2014-05-29          
##  8 Missing      1469 369449           4 2014-05-28     2014-06-02 2014-06-03          
##  9 Missing      1469 f393b4           4 NA             2014-06-05 2014-06-06          
## 10 Missing      1469 1389ca           4 NA             2014-06-05 2014-06-07          
## # ℹ 5,878 more rows
## # ℹ 24 more variables: date_outcome <date>, outcome <chr>, gender <chr>, age <dbl>,
## #   age_unit <chr>, age_years <dbl>, age_cat <fct>, age_cat5 <fct>, lon <dbl>,
## #   lat <dbl>, infector <chr>, source <chr>, wt_kg <dbl>, ht_cm <dbl>,
## #   ct_blood <dbl>, fever <chr>, chills <chr>, cough <chr>, aches <chr>, vomit <chr>,
## #   temp <dbl>, time_admission <chr>, bmi <dbl>, days_onset_hosp <dbl>
…
Groupez les données de la linelist par la colonne hospital.

Triez les enregistrements du plus récent au plus ancien grâce à la colonne date_hospitalisation dans chaque groupe d’hôpitaux.

Tranchez pour récupérer les 5 premières lignes de chaque hôpital

linelist %>%
  group_by(hospital) %>%
  arrange(hospital, date_hospitalisation) %>%
  slice_head(n = 5) %>% 
  arrange(hospital) %>%                            # (pour l'affichage)
  select(case_id, hospital, date_hospitalisation)  # (pour l'affichage)

## # A tibble: 30 × 3
## # Groups:   hospital [6]
##    case_id hospital          date_hospitalisation
##    <chr>   <chr>             <date>              
##  1 20b688  Central Hospital  2014-05-06          
##  2 d58402  Central Hospital  2014-05-10          
##  3 b8f2fd  Central Hospital  2014-05-13          
##  4 acf422  Central Hospital  2014-05-28          
##  5 275cc7  Central Hospital  2014-05-28          
##  6 d1fafd  Military Hospital 2014-04-17          
##  7 974bc1  Military Hospital 2014-05-13          
##  8 6a9004  Military Hospital 2014-05-13          
##  9 09e386  Military Hospital 2014-05-14          
## 10 865581  Military Hospital 2014-05-15          
## # ℹ 20 more rows
…
Filtrer sur la taille des groupes

La fonction add_count() ajoute une colonne n aux données originales, ajoutant ainsi, pour chaque ligne, le nombre de lignes du groupe auquel cette ligne appartient.

Dans l’exemple ci-dessous, add_count() est appliqué à la colonne hospital, de sorte que les valeurs de la nouvelle colonne n reflètent le nombre de lignes dans le groupe hospitalier de cette ligne. Bien sûr, cela veut dire que la valeur de la colonne “n” est répétée pour chaque ligne du groupe.

Dans l’exemple ci-dessous, le nom de la colonne n pourrait être modifié en utilisant name = dans add_count().

linelist %>% 
  as_tibble() %>% 
  add_count(hospital) %>%          # ajoute le nombre de patients admis dans cette hôpital, pour chaque groupe
  select(hospital, n, everything()) # Pour un meilleur affichage

## # A tibble: 5,888 × 31
##    hospital        n case_id generation date_infection date_onset date_hospitalisation
##    <chr>       <int> <chr>        <dbl> <date>         <date>     <date>              
##  1 Other         885 5fe599           4 2014-05-08     2014-05-13 2014-05-15          
##  2 Missing      1469 8689b7           4 NA             2014-05-13 2014-05-14          
##  3 St. Mark's…   422 11f8ea           2 NA             2014-05-16 2014-05-18          
##  4 Port Hospi…  1762 b8812a           3 2014-05-04     2014-05-18 2014-05-20          
##  5 Military H…   896 893f25           3 2014-05-18     2014-05-21 2014-05-22          
##  6 Port Hospi…  1762 be99c8           3 2014-05-03     2014-05-22 2014-05-23          
##  7 Missing      1469 07e3e8           4 2014-05-22     2014-05-27 2014-05-29          
##  8 Missing      1469 369449           4 2014-05-28     2014-06-02 2014-06-03          
##  9 Missing      1469 f393b4           4 NA             2014-06-05 2014-06-06          
## 10 Missing      1469 1389ca           4 NA             2014-06-05 2014-06-07          
## # ℹ 5,878 more rows
## # ℹ 24 more variables: date_outcome <date>, outcome <chr>, gender <chr>, age <dbl>,
## #   age_unit <chr>, age_years <dbl>, age_cat <fct>, age_cat5 <fct>, lon <dbl>,
## #   lat <dbl>, infector <chr>, source <chr>, wt_kg <dbl>, ht_cm <dbl>,
## #   ct_blood <dbl>, fever <chr>, chills <chr>, cough <chr>, aches <chr>, vomit <chr>,
## #   temp <dbl>, time_admission <chr>, bmi <dbl>, days_onset_hosp <dbl>
…
  # Ajoute de nouvelles colonnes (conserve toutes lies lignes)
  mutate(
    # Délai moyen d'admission pour chaque hôpital (arrondi à la 1re décimale)
    group_delay_admit = round(mean(days_onset_hosp, na.rm = T), 1),
    
    # Différence entre le délai de chaque patient et le délai moyen de son hôpital
    diff_to_group = round(days_onset_hosp - group_delay_admit, 1)) %>%
  
  # Sélectionne colonnes (pour l'affichage)
  select(case_id, hospital, days_onset_hosp, group_delay_admit, diff_to_group)

## # A tibble: 5,888 × 5
## # Groups:   hospital [6]
##    case_id hospital                    days_onset_hosp group_delay_admit diff_to_group
##    <chr>   <chr>                                 <dbl>             <dbl>         <dbl>
##  1 5fe599  Other                                     2               2             0  
##  2 8689b7  Missing                                   1               2.1          -1.1
##  3 11f8ea  St. Mark's Maternity Hospi…               2               2.1          -0.1
##  4 b8812a  Port Hospital                             2               2.1          -0.1
##  5 893f25  Military Hospital                         1               2.1          -1.1
##  6 be99c8  Port Hospital                             1               2.1          -1.1
##  7 07e3e8  Missing                                   2               2.1          -0.1
##  8 369449  Missing                                   1               2.1          -1.1
##  9 f393b4  Missing                                   1               2.1          -1.1
## 10 1389ca  Missing                                   2               2.1          -0.1
## # ℹ 5,878 more rows
…
